{"meta":{
    "limit":20,
    "next":"?limit=2&offset=2",
    "offset":0,
    "previous":"?limit=2&offset=0",
    "total_count":4
}, "objects":[
    {
        "case_id":"95bc31b6-8262-4042-9ffa-72dbc75cfc26",
        "closed":false,
        "date_closed":null,
        "date_modified":"1900-01-01",
        "id":"95bc31b6-8262-4042-9ffa-72dbc75cfc26",
        "indices":{},
        "properties":{
            "case_name":"Pankaja",
            "case_type":"cc_bihar_pregnancy",
            "date_last_visit":"2011-03-03",
            "date_next_reg":"2011-03-03",
            "date_opened":"2011-03-03T07:44:22",
            "external_id":null,
            "family_number":"",
            "hh_number":"",
            "husband_name":"Pankaj",
            "last_visit_type":"new",
            "mother_alive":"yes",
            "mother_dob":"",
            "mother_name":"Pankaja",
            "owner_id":"demo_user_group_bihar"
        },
        "resource_uri":"",
        "server_date_modified":"1900-01-01",
        "server_date_opened":null,
        "user_id":"demo_user",
        "xform_ids":["854acc24-b1a4-4361-b121-0d20b755fd21"]
    },
    {
        "case_id":"9a327108-c0c4-48cb-8966-4b40b7814077",
        "closed":false,
        "date_closed":null,
        "date_modified":"1900-01-01",
        "id":"9a327108-c0c4-48cb-8966-4b40b7814077",
        "indices":{},
        "properties":{
            "case_name":"ADG",
            "case_type":"cc_bihar_pregnancy",
            "date_opened":"2011-12-27T00:00:00",
            "edd":"2012-04-27",
            "external_id":null,
            "next_due":"2012-01-10",
            "next_form":"bp",
            "owner_id":"347b31fab217f6f28e0c8d6ff4f0651b",
            "partner_name":"ADG",
            "village":"ADG"
        },
        "resource_uri":"",
        "server_date_modified":"1900-01-01",
        "server_date_opened":null,
        "user_id":"d5ce3a980b5b69e793445ec0e3b2138e",
        "xform_ids":["120c5e3e-9308-4880-b6ea-af43a3d69638"]
    }
]}